{
  "$schema": "http://json-schema.org/draft-04/schema#",
  "title": "Product",
  "description": "Registration form",
  "type": "object",
  "properties": {
    "login": {
      "type": "string",
      "pattern": "^(([a-zA-Z0-9])|((?<=[a-zA-Z0-9])-(?=[a-zA-Z0-9])))+$",
      "minLength": 3
    },
    "pass": {
      "type": "string",
      "minLength": 8
    },
    "email": {
      "type": "string",
      "pattern": "^[a-zA-Z0-9._%+-]+@[a-zA-Z0-9.-]+\\.[a-zA-Z]{2,6}$"
    },
    "firstName": {
      "type": "string",
      "pattern": "^(([a-zA-Zа-яА-Я])|((?<=[a-zA-Zа-яА-Я])-(?=[a-zA-Zа-яА-Я])))+$"
    },
    "secondName": {
      "type": "string",
      "pattern": "^(([a-zA-Zа-яА-Я])|((?<=[a-zA-Zа-яА-Я])-(?=[a-zA-Zа-яА-Я])))+$"
    },
    "birthDate": {
      "type": "string",
      "pattern": "^(0[1-9]|[12][0-9]|3[01])[-](0[1-9]|1[012])[-](19|20)\\d\\d$"
    },
    "zone": {
      "type": "string",
      "pattern": "^[+-](((0[0-9])|(1[0-4])):)([0-5][0-9]:)([0-5][0-9])$"
    }
  },
  "required": [
    "login",
    "pass",
    "email",
    "firstName",
    "secondName",
    "birthDate",
    "zone"
  ]
}